{
  "iisSettings": {
    "windowsAuthentication": false,
    "anonymousAuthentication": true,
    "iisExpress": {
      "applicationUrl": "http://localhost:51780",
      "sslPort": 44330
    }
  },
  "profiles": {
    "IIS Express": {
      "commandName": "IISExpress",
      "launchBrowser": true,
      "environmentVariables": {
        "GOOGLE_APPLICATION_CREDENTIALS": "C:\\Users\\zakki\\Desktop\\Cloud Assignment\\CloudAssignment-324b3c4661c9.json",
        "ASPNETCORE_ENVIRONMENT": "Development"
      }
    },
    "CloudAssignment": {
      "commandName": "Project",
      "launchBrowser": true,
      "environmentVariables": {
        "ASPNETCORE_ENVIRONMENT": "Development"
      },
      "applicationUrl": "https://localhost:5001;http://localhost:5000"
    }
  }
}